{
  "capabilities":
  [
    {
      "browserName": "chrome",
      "maxInstances": 2,
      "seleniumProtocol": "WebDriver"
    }
  ],
  "proxy": "org.openqa.grid.selenium.proxy.DefaultRemoteProxy",
  "maxSession": 2,
  "port": 5555,
  "register": true,
  "registerCycle": 5000,
  "hub": "http://192.168.10.65:4444",
  "nodeStatusCheckTimeout": 5000,
  "nodePolling": 5000,
  "role": "node",
  "unregisterIfStillDownAfter": 60000,
  "downPollingLimit": 2,
  "debug": false,
  "servlets" : [],
  "withoutServlets": [],
  "custom": {}
}